,doc_id,prediction
0,0,1
1,2,1
2,7,1
3,15,1
4,16,1
5,24,1
6,31,1
7,32,1
8,36,1
9,38,1
10,39,1
11,43,1
12,46,1
13,47,1
14,50,1
15,51,1
16,53,1
17,56,1
18,58,1
19,59,1
20,60,1
21,62,1
22,65,1
23,66,1
24,68,1
25,69,1
26,70,1
27,71,1
28,74,1
29,78,1
30,82,1
31,84,1
32,87,1
33,91,1
34,99,1
35,103,1
36,104,1
37,109,1
38,113,1
39,116,1
40,123,1
41,124,1
42,127,1
43,134,1
44,135,1
45,142,1
46,143,1
47,147,1
